<?xml version="1.0" encoding="UTF-8"?>
<svg width="23px" height="23px" viewBox="0 0 23 23" version="1.1" xmlns="http://www.w3.org/2000/svg" xmlns:xlink="http://www.w3.org/1999/xlink">
    <title>Group 3</title>
    <g id="Symbols" stroke="none" stroke-width="1" fill="none" fill-rule="evenodd">
        <g id="wbb-bg" transform="translate(-992.000000, -217.000000)">
            <g id="Group-4" transform="translate(977.000000, 167.000000)">
                <g id="Group-3" transform="translate(15.000000, 50.000000)">
                    <path d="M7,0 C10.3137085,0 13,2.6862915 13,6 C13,9.3137085 10.3137085,12 7,12 C5.77380666,12 4.6335237,11.632174 3.6834702,11.0008411 L0,11 L1.40915325,8.18214451 C1.14499012,7.50583868 1,6.76985147 1,6 C1,2.6862915 3.6862915,0 7,0 Z" id="Combined-Shape" fill="#336699"></path>
                    <g id="Group" transform="translate(13.000000, 14.000000) scale(-1, 1) translate(-13.000000, -14.000000) translate(4.000000, 6.000000)" stroke="#FFFFFF">
                        <path d="M9.9,0 C14.3735065,0 18,3.581722 18,8 C18,12.418278 14.3735065,16 9.9,16 C8.79466344,16 7.74103788,15.7813322 6.78105122,15.3854069 L0,15.3846154 L2.27724615,10.7118923 C1.96834879,9.86506743 1.8,8.95195098 1.8,8 C1.8,3.581722 5.42649353,0 9.9,0 Z" id="Combined-Shape" fill="#F58025"></path>
                        <g id="Group-2-Copy" transform="translate(5.000000, 6.000000)" stroke-linecap="square">
                            <line x1="0.303519062" y1="0.277777778" x2="8.80205279" y2="0.277777778" id="Line"></line>
                            <line x1="0.303519062" y1="2.5" x2="8.80205279" y2="2.5" id="Line-Copy"></line>
                            <line x1="0.303519062" y1="4.72222222" x2="3.33870968" y2="4.72222222" id="Line-Copy"></line>
                        </g>
                    </g>
                </g>
            </g>
        </g>
    </g>
</svg>